module gitlab.com/comentario/comentario

go 1.20

require (
	github.com/adtac/go-akismet v0.0.0-20181220032308-0ca9e1023047
	github.com/disintegration/imaging v1.6.2
	github.com/go-openapi/errors v0.20.3
	github.com/go-openapi/loads v0.21.2
	github.com/go-openapi/runtime v0.25.0
	github.com/go-openapi/spec v0.20.8
	github.com/go-openapi/strfmt v0.21.3
	github.com/go-openapi/swag v0.22.3
	github.com/go-openapi/validate v0.22.1
	github.com/gorilla/handlers v1.5.1
	github.com/jessevdk/go-flags v1.5.0
	github.com/justinas/alice v1.2.0
	github.com/lib/pq v1.10.7
	github.com/lunny/html2md v0.0.0-20181018071239-7d234de44546
	github.com/markbates/goth v1.74.1
	github.com/microcosm-cc/bluemonday v1.0.22
	github.com/op/go-logging v0.0.0-20160315200505-970db520ece7
	github.com/pkg/errors v0.9.1
	github.com/russross/blackfriday v1.6.0
	golang.org/x/crypto v0.6.0
	golang.org/x/net v0.6.0
	gopkg.in/gomail.v2 v2.0.0-20160411212932-81ebce5c23df
	gopkg.in/yaml.v3 v3.0.1
)

require (
	cloud.google.com/go/compute v1.18.0 // indirect
	cloud.google.com/go/compute/metadata v0.2.3 // indirect
	github.com/asaskevich/govalidator v0.0.0-20210307081110-f21760c49a8d // indirect
	github.com/aymerick/douceur v0.2.0 // indirect
	github.com/docker/go-units v0.4.0 // indirect
	github.com/felixge/httpsnoop v1.0.3 // indirect
	github.com/go-openapi/analysis v0.21.4 // indirect
	github.com/go-openapi/jsonpointer v0.19.5 // indirect
	github.com/go-openapi/jsonreference v0.20.0 // indirect
	github.com/golang/protobuf v1.5.2 // indirect
	github.com/gorilla/css v1.0.0 // indirect
	github.com/josharian/intern v1.0.0 // indirect
	github.com/mailru/easyjson v0.7.7 // indirect
	github.com/mitchellh/mapstructure v1.4.3 // indirect
	github.com/mrjones/oauth v0.0.0-20180629183705-f4e24b6d100c // indirect
	github.com/oklog/ulid v1.3.1 // indirect
	go.mongodb.org/mongo-driver v1.10.0 // indirect
	golang.org/x/image v0.4.0 // indirect
	golang.org/x/oauth2 v0.5.0 // indirect
	golang.org/x/sys v0.5.0 // indirect
	google.golang.org/appengine v1.6.7 // indirect
	google.golang.org/protobuf v1.28.1 // indirect
	gopkg.in/alexcesaro/quotedprintable.v3 v3.0.0-20150716171945-2caba252f4dc // indirect
)
